<svg version="1.1"
	 xmlns="http://www.w3.org/2000/svg" xmlns:xlink="http://www.w3.org/1999/xlink" xmlns:a="http://ns.adobe.com/AdobeSVGViewerExtensions/3.0/"
	 x="0px" y="0px" width="20.7px" height="38.4px" viewBox="0 0 20.7 38.4" enable-background="new 0 0 20.7 38.4"
	 xml:space="preserve">
	
	<polygon fill="#FFFFFF" points="18.8,0 20.7,1.8 3.6,19.2 20.7,36.6 18.8,38.4 0,19.2 "/>
</svg>
