<svg version="1.1"
	 xmlns="http://www.w3.org/2000/svg" xmlns:xlink="http://www.w3.org/1999/xlink" xmlns:a="http://ns.adobe.com/AdobeSVGViewerExtensions/3.0/"
	 x="0px" y="0px" width="13.3px" height="7.7px" viewBox="0 0 13.3 7.7" enable-background="new 0 0 13.3 7.7" xml:space="preserve">

	<polyline fill="none" stroke="#AEA79F" stroke-width="2" points="0.7,0.7 6.6,6.3 12.6,0.7" />
</svg>
