<!-- Generator: Adobe Illustrator 17.1.0, SVG Export Plug-In  -->
<svg version="1.1"
	 xmlns="http://www.w3.org/2000/svg" xmlns:xlink="http://www.w3.org/1999/xlink" xmlns:a="http://ns.adobe.com/AdobeSVGViewerExtensions/3.0/"
	 x="0px" y="0px" width="7.7px" height="13.3px" viewBox="0 0 7.7 13.3" enable-background="new 0 0 7.7 13.3" xml:space="preserve">
	<polyline fill="none" stroke="#FFFFFF" stroke-width="2" points="7,0.7 1.4,6.7 7,12.6 "/>
</svg>
